Data wrangling with dplyr, tidyr and gsub()
…
library('tidyverse')                   # load library

class(data1)                           # determine the class of variable
[1] "data.frame"

data1=as.tibble(data1)                 # change class of variable and store

class(data1)
[1] "tbl_df"     "tbl"        "data.frame"

Class of ‘data1’ variable changed from data frame to tibble. And the following output is produced.

data1                                  # print output
# A tibble: 264 x 47
   Country.Name Country.Code Indicator.Name Indicator.Code   X1970   X1971
   <fct>        <fct>        <fct>          <fct>            <dbl>   <dbl>
 1 Aruba        ABW          Total greenho~ EN.ATM.GHGT.K~  4.23e1  4.28e1
 2 Afghanistan  AFG          Total greenho~ EN.ATM.GHGT.K~  1.43e4  1.44e4
 3 Angola       AGO          Total greenho~ EN.ATM.GHGT.K~  6.06e4  3.92e4
 4 Albania      ALB          Total greenho~ EN.ATM.GHGT.K~  6.96e3  6.95e3
 5 Andorra      AND          Total greenho~ EN.ATM.GHGT.K~ NA      NA     
 6 Arab World   ARB          Total greenho~ EN.ATM.GHGT.K~  5.52e5  5.77e5
 7 United Arab~ ARE          Total greenho~ EN.ATM.GHGT.K~  3.30e4  4.14e4
 8 Argentina    ARG          Total greenho~ EN.ATM.GHGT.K~  2.22e5  2.14e5
 9 Armenia      ARM          Total greenho~ EN.ATM.GHGT.K~  6.25e3  6.38e3
10 American Sa~ ASM          Total greenho~ EN.ATM.GHGT.K~  1.31e1  1.32e1
# ... with 254 more rows, and 41 more variables: X1972 <dbl>, X1973 <dbl>,
#   X1974 <dbl>, X1975 <dbl>, X1976 <dbl>, X1977 <dbl>, X1978 <dbl>,
#   X1979 <dbl>, X1980 <dbl>, X1981 <dbl>, X1982 <dbl>, X1983 <dbl>,
#   X1984 <dbl>, X1985 <dbl>, X1986 <dbl>, X1987 <dbl>, X1988 <dbl>,
#   X1989 <dbl>, X1990 <dbl>, X1991 <dbl>, X1992 <dbl>, X1993 <dbl>,
#   X1994 <dbl>, X1995 <dbl>, X1996 <dbl>, X1997 <dbl>, X1998 <dbl>,
#   X1999 <dbl>, X2000 <dbl>, X2001 <dbl>, X2002 <dbl>, X2003 <dbl>,
#   X2004 <dbl>, X2005 <dbl>, X2006 <dbl>, X2007 <dbl>, X2008 <dbl>,
#   X2009 <dbl>, X2010 <dbl>, X2011 <dbl>, X2012 <dbl>
…
‘%>%’ is a pipe operator which indicates ‘and then’. Pipe operator is a convenient tool from Magrittr package but when we have Tidyverse library, it will be unnecessary for us to intall and load Magrittr manually because it’s part of the library.

By using ‘%>%’, we will get the same output with above code in one shot.

II

data1=data1 %>% select(Country.Name,Country.Code,X2008,X2009,X2010,X2011) %>% gather('X2008','X2009','X2010','X2011',key='Year',value='Total greenhouse gas emissions (kt of CO2 equivalent)')

# select() specifies which column you wish to include by column name

# gather() tidy data 

data1           
# A tibble: 1,056 x 4
   Country.Name         Country.Code Year  `Total greenhouse gas emission~
   <fct>                <fct>        <chr>                           <dbl>
 1 Aruba                ABW          X2008                            NA  
 2 Afghanistan          AFG          X2008                         15289. 
 3 Angola               AGO          X2008                         37396. 
 4 Albania              ALB          X2008                          8137. 
 5 Andorra              AND          X2008                            NA  
 6 Arab World           ARB          X2008                       2364089. 
 7 United Arab Emirates ARE          X2008                        181389. 
 8 Argentina            ARG          X2008                        411504. 
 9 Armenia              ARM          X2008                         12470. 
10 American Samoa       ASM          X2008                            54.6
# ... with 1,046 more rows
…
